<?xml version="1.0" encoding="UTF-8" standalone="no"?>
<!-- Created with Inkscape (http://www.inkscape.org/) -->

<svg
   xmlns:dc="http://purl.org/dc/elements/1.1/"
   xmlns:cc="http://creativecommons.org/ns#"
   xmlns:rdf="http://www.w3.org/1999/02/22-rdf-syntax-ns#"
   xmlns:svg="http://www.w3.org/2000/svg"
   xmlns="http://www.w3.org/2000/svg"
   xmlns:sodipodi="http://sodipodi.sourceforge.net/DTD/sodipodi-0.dtd"
   xmlns:inkscape="http://www.inkscape.org/namespaces/inkscape"
   width="60"
   height="60"
   viewBox="0 0 15.874999 15.875"
   version="1.1"
   id="svg8"
   inkscape:version="0.92.2 (5c3e80d, 2017-08-06)"
   sodipodi:docname="note_U.svg">
  <defs
     id="defs2" />
  <sodipodi:namedview
     id="base"
     pagecolor="#ffffff"
     bordercolor="#666666"
     borderopacity="1.0"
     inkscape:pageopacity="0.0"
     inkscape:pageshadow="2"
     inkscape:zoom="1.9798991"
     inkscape:cx="-137.84142"
     inkscape:cy="122.4013"
     inkscape:document-units="mm"
     inkscape:current-layer="g1138"
     showgrid="false"
     units="px"
     inkscape:window-width="1920"
     inkscape:window-height="1137"
     inkscape:window-x="-8"
     inkscape:window-y="-8"
     inkscape:window-maximized="1"
     fit-margin-top="0"
     fit-margin-left="10"
     fit-margin-right="10"
     fit-margin-bottom="0" />
  <metadata
     id="metadata5">
    <rdf:RDF>
      <cc:Work
         rdf:about="">
        <dc:format>image/svg+xml</dc:format>
        <dc:type
           rdf:resource="http://purl.org/dc/dcmitype/StillImage" />
        <dc:title></dc:title>
      </cc:Work>
    </rdf:RDF>
  </metadata>
  <g
     id="g1138"
     inkscape:label="U"
     transform="matrix(0.34392155,0,0,0.34392155,-2.2670394,-122.97449)">
    <path
       style="opacity:1;fill:#f3d41d;fill-opacity:1;fill-rule:nonzero;stroke:none;stroke-width:2.64583325;stroke-linecap:round;stroke-linejoin:round;stroke-miterlimit:4;stroke-dasharray:none;stroke-opacity:1"
       d="M 48.00297,380.64492 A 18.331844,18.331844 0 0 1 29.671125,398.97676 18.331844,18.331844 0 0 1 11.339281,380.64492 18.331844,18.331844 0 0 1 29.671125,362.31307 18.331844,18.331844 0 0 1 48.00297,380.64492 Z"
       id="circle1116"
       inkscape:connector-curvature="0" />
    <path
       style="opacity:1;fill:#040300;fill-opacity:1;fill-rule:nonzero;stroke:none;stroke-width:1.76472127;stroke-linecap:round;stroke-linejoin:round;stroke-miterlimit:4;stroke-dasharray:none;stroke-opacity:1"
       inkscape:transform-center-x="1.2078545e-006"
       inkscape:transform-center-y="-2.9019154"
       d="m 29.671126,369.03722 10.052558,17.41154 H 19.618567 Z"
       id="path1134"
       inkscape:connector-curvature="0" />
  </g>
</svg>
