<?xml version="1.0" encoding="UTF-8" standalone="no"?>
<!-- Created with Inkscape (http://www.inkscape.org/) -->

<svg
   xmlns:dc="http://purl.org/dc/elements/1.1/"
   xmlns:cc="http://creativecommons.org/ns#"
   xmlns:rdf="http://www.w3.org/1999/02/22-rdf-syntax-ns#"
   xmlns:svg="http://www.w3.org/2000/svg"
   xmlns="http://www.w3.org/2000/svg"
   xmlns:xlink="http://www.w3.org/1999/xlink"
   xmlns:sodipodi="http://sodipodi.sourceforge.net/DTD/sodipodi-0.dtd"
   xmlns:inkscape="http://www.inkscape.org/namespaces/inkscape"
   width="1000"
   height="1000"
   viewBox="0 0 264.58333 264.58334"
   version="1.1"
   id="svg8"
   inkscape:version="0.92.2 (5c3e80d, 2017-08-06)"
   sodipodi:docname="time_night.svg">
  <defs
     id="defs2">
    <linearGradient
       inkscape:collect="always"
       id="linearGradient873">
      <stop
         id="stop869"
         offset="0"
         style="stop-color:#959563;stop-opacity:1" />
      <stop
         id="stop871"
         offset="1"
         style="stop-color:#b0b08b;stop-opacity:1" />
    </linearGradient>
    <linearGradient
       id="linearGradient890"
       inkscape:collect="always">
      <stop
         style="stop-color:#7f7f55;stop-opacity:1"
         offset="0"
         id="stop886" />
      <stop
         style="stop-color:#aaaa82;stop-opacity:1"
         offset="1"
         id="stop888" />
    </linearGradient>
    <linearGradient
       inkscape:collect="always"
       id="linearGradient874">
      <stop
         id="stop870"
         offset="0"
         style="stop-color:#6a6a47;stop-opacity:1" />
      <stop
         id="stop872"
         offset="1"
         style="stop-color:#999967;stop-opacity:1" />
    </linearGradient>
    <linearGradient
       id="linearGradient856"
       inkscape:collect="always">
      <stop
         style="stop-color:#9b9b6b;stop-opacity:1"
         offset="0"
         id="stop854" />
      <stop
         style="stop-color:#e1e1d5;stop-opacity:1"
         offset="1"
         id="stop852" />
    </linearGradient>
    <linearGradient
       inkscape:collect="always"
       id="linearGradient832">
      <stop
         style="stop-color:#ffffff;stop-opacity:1"
         offset="0"
         id="stop828" />
      <stop
         style="stop-color:#999967;stop-opacity:1"
         offset="1"
         id="stop830" />
    </linearGradient>
    <inkscape:path-effect
       effect="copy_rotate"
       starting_point="138.1503,164.70831"
       origin="132.29167,164.70831"
       id="path-effect824"
       is_visible="true"
       copies_to_360="true"
       fuse_paths="false"
       starting_angle="0"
       rotation_angle="45"
       num_copies="8" />
    <radialGradient
       inkscape:collect="always"
       xlink:href="#linearGradient832"
       id="radialGradient834"
       cx="94.494057"
       cy="130.12349"
       fx="94.494057"
       fy="130.12349"
       r="75.59523"
       gradientUnits="userSpaceOnUse" />
    <radialGradient
       inkscape:collect="always"
       xlink:href="#linearGradient874"
       id="radialGradient868"
       gradientUnits="userSpaceOnUse"
       gradientTransform="matrix(0.4359924,0,0,0.4359924,103.77414,118.12522)"
       cx="109.28443"
       cy="147.45287"
       fx="109.28443"
       fy="147.45287"
       r="75.59523" />
    <radialGradient
       inkscape:collect="always"
       xlink:href="#linearGradient890"
       id="radialGradient884-3"
       gradientUnits="userSpaceOnUse"
       gradientTransform="matrix(0.09499993,0,0,0.09499993,154.75162,113.89581)"
       cx="109.28443"
       cy="147.45287"
       fx="109.28443"
       fy="147.45287"
       r="75.59523" />
    <radialGradient
       inkscape:collect="always"
       xlink:href="#linearGradient856"
       id="radialGradient863"
       gradientUnits="userSpaceOnUse"
       gradientTransform="matrix(0.32224238,0,0,0.32224238,75.129027,74.591159)"
       cx="109.28443"
       cy="147.45287"
       fx="109.28443"
       fy="147.45287"
       r="75.59523" />
    <radialGradient
       inkscape:collect="always"
       xlink:href="#linearGradient873"
       id="radialGradient867"
       gradientUnits="userSpaceOnUse"
       gradientTransform="matrix(0.22999994,0,0,0.22999994,58.829966,146.3023)"
       cx="109.28443"
       cy="147.45287"
       fx="109.28443"
       fy="147.45287"
       r="75.59523" />
  </defs>
  <sodipodi:namedview
     id="base"
     pagecolor="#ffffff"
     bordercolor="#666666"
     borderopacity="1.0"
     inkscape:pageopacity="0.0"
     inkscape:pageshadow="2"
     inkscape:zoom="0.24748738"
     inkscape:cx="659.98933"
     inkscape:cy="481.21953"
     inkscape:document-units="mm"
     inkscape:current-layer="layer1"
     showgrid="false"
     units="px"
     inkscape:window-width="1920"
     inkscape:window-height="1137"
     inkscape:window-x="-8"
     inkscape:window-y="-8"
     inkscape:window-maximized="1"
     inkscape:snap-object-midpoints="true"
     inkscape:snap-bbox="true"
     inkscape:snap-bbox-edge-midpoints="true" />
  <metadata
     id="metadata5">
    <rdf:RDF>
      <cc:Work
         rdf:about="">
        <dc:format>image/svg+xml</dc:format>
        <dc:type
           rdf:resource="http://purl.org/dc/dcmitype/StillImage" />
        <dc:title></dc:title>
      </cc:Work>
    </rdf:RDF>
  </metadata>
  <g
     inkscape:label="Ebene 1"
     inkscape:groupmode="layer"
     id="layer1"
     transform="translate(0,-32.41665)">
    <g
       id="g844"
       transform="matrix(1.5750002,0,0,1.5750002,-76.067736,-94.707309)">
      <circle
         style="opacity:1;fill:url(#radialGradient834);fill-opacity:1;fill-rule:nonzero;stroke:none;stroke-width:0.36059052;stroke-linecap:round;stroke-linejoin:miter;stroke-miterlimit:4;stroke-dasharray:none;stroke-opacity:1"
         id="circle819"
         cx="132.29167"
         cy="164.70831"
         r="75.59523" />
      <circle
         r="32.958942"
         cy="189.9368"
         cx="161.45227"
         id="circle866"
         style="opacity:1;fill:url(#radialGradient868);fill-opacity:1;fill-rule:nonzero;stroke:none;stroke-width:0.15721473;stroke-linecap:round;stroke-linejoin:miter;stroke-miterlimit:4;stroke-dasharray:none;stroke-opacity:1" />
      <circle
         r="7.1815414"
         cy="129.54309"
         cx="167.31934"
         id="circle882-9"
         style="opacity:1;fill:url(#radialGradient884-3);fill-opacity:1;fill-rule:nonzero;stroke:none;stroke-width:0.03425607;stroke-linecap:round;stroke-linejoin:miter;stroke-miterlimit:4;stroke-dasharray:none;stroke-opacity:1" />
      <circle
         style="display:inline;opacity:1;fill:url(#radialGradient863);fill-opacity:1;fill-rule:nonzero;stroke:none;stroke-width:0.11619755;stroke-linecap:round;stroke-linejoin:miter;stroke-miterlimit:4;stroke-dasharray:none;stroke-opacity:1"
         id="circle861"
         cx="117.75899"
         cy="127.66717"
         r="24.359983" />
      <circle
         style="opacity:1;fill:url(#radialGradient867);fill-opacity:1;fill-rule:nonzero;stroke:none;stroke-width:0.08293579;stroke-linecap:round;stroke-linejoin:miter;stroke-miterlimit:4;stroke-dasharray:none;stroke-opacity:1"
         id="circle865"
         cx="89.257088"
         cy="184.1852"
         r="17.386898" />
      <circle
         r="75.59523"
         cy="164.70831"
         cx="132.29167"
         id="circle877"
         style="opacity:1;fill:#004dcb;fill-opacity:0.53305802;fill-rule:nonzero;stroke:none;stroke-width:0.36059052;stroke-linecap:round;stroke-linejoin:miter;stroke-miterlimit:4;stroke-dasharray:none;stroke-opacity:1" />
    </g>
    <circle
       style="opacity:1;fill:none;fill-opacity:1;fill-rule:nonzero;stroke:#000000;stroke-width:10.00880909;stroke-linecap:round;stroke-linejoin:miter;stroke-miterlimit:4;stroke-dasharray:none;stroke-opacity:1"
       id="path1076"
       cx="132.29167"
       cy="164.70833"
       r="120.10572" />
  </g>
</svg>
