{
    "locations": [
        "10 Big Poes",
        "Deku Theater Mask of Truth",
        "20 Gold Skulltula Reward",
        "30 Gold Skulltula Reward",
        "40 Gold Skulltula Reward",
        "50 Gold Skulltula Reward",
        "Ocarina of Time",
        "Song from Ocarina of Time",
        "Biggoron",
        "Frog Ocarina Game",
        "Child Fishing",
        "Adult Fishing",
        "Treasure Chest Game",
        "Darunias Joy",
        "Horseback Archery 1500 Points",
        "Lake Hylia Sun",
        "Heart Piece Grave Chest",
        "Goron City Leftmost Maze Chest",
        "GS Hyrule Castle Grotto",
        "GS Hyrule Field Near Gerudo Valley",
        "GS Zora's Fountain Hidden Cave",
        "Forest Temple Floormaster Chest",
        "Fire Temple Scarecrow Chest",
        "Fire Temple Megaton Hammer Chest",
        "Fire Temple MQ West Tower Top Chest",
        "Water Temple River Chest",
        "Water Temple Boss Key Chest",
        "Water Temple MQ Boss Key Chest",
        "Water Temple MQ Freestanding Key",
        "GS Water Temple MQ North Basement",
        "Gerudo Training Grounds Underwater Silver Rupee Chest",
        "Gerudo Training Grounds MQ Underwater Silver Rupee Chest",
        "Gerudo Training Grounds Maze Path Final Chest",
        "Gerudo Training Grounds MQ Ice Arrows Chest",
        "Bottom of the Well Defeat Boss",
        "Bottom of the Well MQ Compass Chest",
        "Silver Gauntlets Chest",
        "Mirror Shield Chest",
        "Spirit Temple MQ Child Center Chest",
        "Spirit Temple MQ Lower Adult Right Chest",
        "GS Spirit Temple MQ Lower Adult Right",
        "Shadow Temple Hidden Floormaster Chest",
        "Shadow Temple MQ Bomb Flower Chest",
        "Haunted Wasteland Structure Chest",
        "Composer Grave Chest",
        "Song from Composer Grave",
        "Sheik Forest Song",
        "Sheik at Temple",
        "Sheik in Crater",
        "Sheik in Ice Cavern",
        "Sheik in Kakariko",
        "Sheik at Colossus",
        "Zoras Fountain Bottom Freestanding PoH",
        "Colossus Freestanding PoH",
        "DM Crater Volcano Freestanding PoH",
        "Goron City Pot Freestanding PoH",
        "Deku Tree MQ After Spinning Log Chest",
        "GS Jabu Jabu MQ Invisible Enemies Room",
        "Deku Tree",
        "Dodongos Cavern",
        "Jabu Jabus Belly",
        "Forest Temple",
        "Fire Temple",
        "Water Temple",
        "Shadow Temple",
        "Spirit Temple",
        "Ice Cavern",
        "Bottom of the Well",
        "Gerudo Training Grounds",
        "Ganons Castle"
    ],
    "items": [
        "Magic Meter",
        "Double Defense",
        "Slingshot",
        "Boomerang",
        "Bow",
        "Bomb Bag",
        "Progressive Hookshot",
        "Progressive Strength Upgrade",
        "Progressive Scale",
        "Hammer",
        "Iron Boots",
        "Hover Boots",
        "Kokiri Sword",
        "Biggoron Sword",
        "Master Sword",
        "Deku Shield",
        "Hylian Shield",
        "Mirror Shield",
        "Farores Wind",
        "Nayrus Love",
        "Dins Fire",
        "Fire Arrows",
        "Ice Arrows",
        "Light Arrows",
        "Lens of Truth",
        "Ocarina",
        "Goron Tunic",
        "Zora Tunic",
        "Epona",
        "Zeldas Lullaby",
        "Eponas Song",
        "Sarias Song",
        "Suns Song",
        "Song of Time",
        "Song of Storms",
        "Minuet of Forest",
        "Bolero of Fire",
        "Serenade of Water",
        "Requiem of Spirit",
        "Nocturne of Shadow",
        "Prelude of Light",
        "Bottle",
        "Bottle with Letter",
        "Bottle with Milk",
        "Bottle with Red Potion",
        "Bottle with Green Potion",
        "Bottle with Blue Potion",
        "Bottle with Fairy",
        "Bottle with Fish",
        "Bottle with Blue Fire",
        "Bottle with Bugs",
        "Bottle with Poe",
        "Bottle with Big Poe",
        "Stone of Agony",
        "Gerudo Membership Card",
        "Progressive Wallet",
        "Deku Stick Capacity",
        "Deku Nut Capacity",
        "Heart Container",
        "Piece of Heart",
        "Piece of Heart (Treasure Chest Game)",
        "Recovery Heart",
        "Rupee (Treasure Chest Game)",
        "Deku Stick (1)",
        "Rupee (1)",
        "Rupees (5)",
        "Rupees (20)",
        "Rupees (50)",
        "Rupees (200)",
        "Weird Egg",
        "Zeldas Letter",
        "Pocket Egg",
        "Pocket Cucco",
        "Cojiro",
        "Odd Mushroom",
        "Odd Potion",
        "Poachers Saw",
        "Broken Sword",
        "Prescription",
        "Eyeball Frog",
        "Eyedrops",
        "Claim Check",
        "Map",
        "Compass",
        "BossKey",
        "SmallKey",
        "FortressSmallKey",
        "KeyError",
        "Arrows (5)",
        "Arrows (10)",
        "Arrows (30)",
        "Bombs (5)",
        "Bombs (10)",
        "Bombs (20)",
        "Ice Trap",
        "Magic Bean",
        "Bombchus",
        "Bombchus (5)",
        "Bombchus (10)",
        "Bombchus (20)",
        "Deku Nuts (5)",
        "Deku Nuts (10)",
        "Deku Seeds (30)",
        "Gold Skulltula Token"
    ]
}