{
    "song_zelda": {
        "notes": "LURLUR",
        "editable": true
    },
    "song_saria": {
        "notes": "DRLDRL",
        "editable": true
    },
    "song_epona": {
        "notes": "ULRULR",
        "editable": true
    },
    "song_sun": {
        "notes": "RDURDU",
        "editable": true
    },
    "song_time": {
        "notes": "RADRAD",
        "editable": true
    },
    "song_storm": {
        "notes": "ADUADU",
        "editable": true
    },
    "warp_forest": {
        "notes": "AULRLR",
        "editable": true
    },
    "warp_fire": {
        "notes": "DADARDRD",
        "editable": true
    },
    "warp_water": {
        "notes": "ADRRL",
        "editable": true
    },
    "warp_shadow": {
        "notes": "LRRALRD",
        "editable": true
    },
    "warp_spirit": {
        "notes": "ADARDA",
        "editable": true
    },
    "warp_light": {
        "notes": "URURLU",
        "editable": true
    },
    "song_scarecrow": {
        "notes": "",
        "editable": true
    },
    "song_frogs": {
        "notes": "ALRDLRDADADRLA",
        "editable": false
    },
    "song_woods": {
        "notes": "",
        "editable": true
    }
}